﻿"C:\Users\Eispala\source\repos\TextEdit\TextEdit\obj\x86\Release\ilc\in\TextEdit.exe"
/Lib:"C:\Users\Eispala\source\repos\TextEdit\TextEdit\obj\x86\Release\ilc\in"
/Lib:"C:\Program Files (x86)\Microsoft SDKs\UWPNuGetPackages\runtime.win10-x86.microsoft.net.native.compiler\2.2.3\tools\x86\ilc\lib\Private"
/WinMD:"C:\Users\Eispala\source\repos\TextEdit\TextEdit\obj\x86\Release\ilc\in\WinMetadata\Windows.winmd"
/VSTelemetrySessionSettings:"{"IsOptedIn":true,"HostName":"Dev14","AppInsightsInstrumentationKey":"f144292e-e3b2-4011-ac90-20e5c03fbce5","AsimovInstrumentationKey":"AIF-312cbd79-9dbb-4c48-a7da-3cc2a931cb70","AppId":1001,"UserId":"f8362977-1465-49f9-91a2-50647af272bd","Id":"d39d5733-55b9-432e-af87-c34f2ce1d54c","ProcessStartTime":636956206902952738}"
/RdXmlPath:"C:\Program Files (x86)\Microsoft SDKs\UWPNuGetPackages\microsoft.net.native.compiler\2.2.3\tools\LibraryXML"
/RunOnlyPreDR
