﻿/osver:6.2
/appcontainer
"/runtime:mrt100_app"
/eh:clr
/pdb
"/nativeLink:C:\Program Files (x86)\Microsoft SDKs\UWPNuGetPackages\runtime.win10-x86.microsoft.net.native.compiler\2.2.3\tools\x86\ilc\lib\Native\vmath.lib"
/customImports
/methodBodyFolding
"C:\Users\Eispala\source\repos\TextEdit\TextEdit\obj\x86\Release\ilc\intermediate\MDIL\TextEdit.mdilexe"
"/i:C:\Users\Eispala\source\repos\TextEdit\TextEdit\obj\x86\Release\ilc\intermediate\MDIL"
"/out:C:\Users\Eispala\source\repos\TextEdit\TextEdit\obj\x86\Release\ilc\intermediate\Native\TextEdit.exe"
"/pdbAltPath:C:\Users\Eispala\source\repos\TextEdit\TextEdit\bin\x86\Release\ilc"
"/res:C:\Users\Eispala\source\repos\TextEdit\TextEdit\obj\x86\Release\ilc\intermediate\Native.res"
"/i:C:\Program Files (x86)\Microsoft SDKs\UWPNuGetPackages\runtime.win10-x86.microsoft.net.native.sharedlibrary\2.2.3\tools\SharedLibrary\ret\MDIL"
/shimexe
"/classlib:SharedLibrary"
